ISSS626-GAA - Take-home Exercise 2: Discovering impacts of COVID-19 on Thailand tourism economy at province level using spatial and spatio-temporal statistics
…
The below code is used to check thailand sf dataframe again, which shows the geometry type is already POLYGON. This sf dataframe will be used to define the province boundaries for the remaining analysis.

thailand

Simple feature collection with 77 features and 1 field
Geometry type: POLYGON
Dimension:     XY
Bounding box:  xmin: 97.34336 ymin: 5.613038 xmax: 105.637 ymax: 20.46507
Geodetic CRS:  WGS 84
# A tibble: 77 × 2
   province_eng                                                         geometry
   <chr>                                                           <POLYGON [°]>
 1 Bangkok                  ((100.6139 13.95462, 100.6143 13.95442, 100.6149 13…
 2 Samut Prakan             ((100.7306 13.71713, 100.7307 13.71681, 100.7313 13…
 3 Nonthaburi               ((100.3415 14.10079, 100.3415 14.10001, 100.3415 14…
 4 Pathum Thani             ((100.8916 14.24576, 100.8916 14.24365, 100.8916 14…
 5 Phra Nakhon Si Ayutthaya ((100.5131 14.6563, 100.5132 14.65629, 100.5135 14.…
 6 Ang Thong                ((100.3332 14.79853, 100.3334 14.79811, 100.3335 14…
 7 Lop Buri                 ((101.3453 15.75254, 101.3457 15.75224, 101.3466 15…
 8 Sing Buri                ((100.3691 15.0894, 100.3697 15.0891, 100.3708 15.0…
 9 Chai Nat                 ((100.1199 15.41243, 100.121 15.41234, 100.1229 15.…
10 Saraburi                 ((101.3994 15.07373, 101.3995 15.07373, 101.3998 15…
# ℹ 67 more rows
…
