ISSS626-GAA - Take-home Exercise 1: Geospatial Analytics for Public Good
…
Next we check the content and CRS of the simple features object and observe the following:

The event object bmr_acc is already in POINT geometry type with dimension XY, which satisfies the requirement for further Kernel Density Estimate (KDE) analysis.

CRS is set to EPSG 32647 as expected.

bmr_acc

Simple feature collection with 12986 features and 18 fields
Geometry type: POINT
Dimension:     XY
Bounding box:  xmin: 591277.5 ymin: 1486846 xmax: 710166.1 ymax: 1576520
Projected CRS: WGS 84 / UTM zone 47N
# A tibble: 12,986 × 19
   acc_code incident_datetime   province_en   vehicle_type        presumed_cause
 *    <dbl> <dttm>              <chr>         <chr>               <chr>         
 1   571882 2019-01-01 02:25:00 Nakhon Pathom motorcycle          speeding      
 2   600001 2019-01-01 03:00:00 Nonthaburi    private/passenger … speeding      
 3   605043 2019-01-01 03:00:00 Samut Prakan  private/passenger … running red l…
 4   629691 2019-01-01 03:05:00 Bangkok       other               other         
 5   571887 2019-01-01 04:30:00 Nakhon Pathom motorcycle          speeding      
 6   599234 2019-01-01 04:45:00 Samut Prakan  motorcycle          driving under…
 7   599990 2019-01-01 05:30:00 Samut Sakhon  motorcycle          speeding      
 8   612045 2019-01-01 05:30:00 Nonthaburi    private/passenger … cutting in cl…
 9   629689 2019-01-01 05:42:00 Bangkok       other               other         
10   607046 2019-01-01 06:30:00 Pathum Thani  private/passenger … speeding      
# ℹ 12,976 more rows
# ℹ 14 more variables: accident_type <chr>, number_of_vehicles_involved <dbl>,
#   number_of_fatalities <dbl>, number_of_injuries <dbl>,
#   weather_condition <chr>, road_description <chr>, slope_description <chr>,
#   month_no <dbl>, month_fac <ord>, dayofweek <dbl>, dayofyear <dbl>,
#   hourofday <int>, year <dbl>, geometry <POINT [m]>
…
summarise(): returns 1 row representing the count of records under each presumed cause.

cause_counts <- bmr_acc %>%
  group_by(presumed_cause) %>%
  summarise(count = n()) %>%
  ungroup()
cause_counts

Simple feature collection with 40 features and 2 fields
Geometry type: GEOMETRY
Dimension:     XY
Bounding box:  xmin: 591277.5 ymin: 1486846 xmax: 710166.1 ymax: 1576520
Projected CRS: WGS 84 / UTM zone 47N
# A tibble: 40 × 3
   presumed_cause                                count                  geometry
   <chr>                                         <int>            <GEOMETRY [m]>
 1 abrupt lane change                               59 MULTIPOINT ((603057.8 15…
 2 brake/anti-lock brake system failure              7 MULTIPOINT ((665762 1511…
 3 cutting in closely by people/vehicles/animals   621 MULTIPOINT ((595540.6 15…
 4 dangerous curve                                  14 MULTIPOINT ((640057.9 15…
 5 debris/obstruction on the road                   29 MULTIPOINT ((640235.4 15…
 6 disabled vehicle without proper signals           1  POINT (639212.7 1509212)
 7 disabled vehicle without proper signals/signs     3 MULTIPOINT ((654036.8 15…
 8 driving in the wrong lane                         6 MULTIPOINT ((623601.1 14…
 9 driving under the influence of alcohol          118 MULTIPOINT ((607471.8 15…
10 failure to signal enter/exit parking              5 MULTIPOINT ((622165.9 15…
# ℹ 30 more rows
…
